{
  "nodes": [
    {
      "id": "b0cc67ec-38b2-4a6f-8ead-3e352a7cbc31",
      "label": "Домашние животные",
      "x": -146,
      "y": -253
    },
    {
      "id": "3f5457b2-58bb-430e-b1ca-019366735187",
      "label": "Членистоногие",
      "x": -297,
      "y": -113
    },
    {
      "id": "d45f2911-926c-4624-a99e-7b1c64868a24",
      "label": "Млекопитающие",
      "x": -49,
      "y": -111
    },
    {
      "id": "27ea61d1-e462-419d-a6b2-9e14c01be5ee",
      "label": "Рептилии",
      "x": 537,
      "y": -74
    },
    {
      "id": "0985f0a0-d92f-47f0-be41-f6b9a049254a",
      "label": "Паукообразные",
      "x": -406,
      "y": 9
    },
    {
      "id": "6768e48c-e2af-4340-9bce-3af4821d48d9",
      "label": "Насекомые",
      "x": -554,
      "y": 8
    },
    {
      "id": "dfe1fcf7-574b-4a0d-9b04-08181826b8cb",
      "label": "Пауки",
      "x": -451,
      "y": 119
    },
    {
      "id": "fb924576-0820-44dd-bec3-714709174dfa",
      "label": "Псовые",
      "x": -205,
      "y": 3
    },
    {
      "id": "6caa1af2-a94b-4b45-b387-853aea0743e5",
      "label": "Собаки",
      "x": -177,
      "y": 121
    },
    {
      "id": "ac6697a7-596f-49d4-8a2c-c7eaad46a38f",
      "label": "Лисы",
      "x": -316,
      "y": 116
    },
    {
      "id": "c02d83e4-0cf5-4d93-aa4d-26b44f452727",
      "label": "Кошачьи",
      "x": -91,
      "y": 3
    },
    {
      "id": "8d0f8b18-427d-493c-b8b5-3fc4205d8a6e",
      "label": "Тараканы",
      "x": -639,
      "y": 112
    },
    {
      "id": "39918c16-f40d-4120-8412-854c416af247",
      "label": "Кошки",
      "x": -57,
      "y": 123
    },
    {
      "id": "286bbaef-6ab8-41e7-9af1-955cf35dc0f9",
      "label": "Куньи",
      "x": 65,
      "y": 1
    },
    {
      "id": "31266274-abff-4cdf-a3f5-25f6d2d7d5e5",
      "label": "Хорьки",
      "x": 54,
      "y": 113
    },
    {
      "id": "03df4f6e-a77c-4c5c-a22f-bd049827b34d",
      "label": "Выдры",
      "x": 165,
      "y": 103
    },
    {
      "id": "dc4a2f4d-53d2-4517-bd3e-4010f02dba85",
      "label": "Грызуны",
      "x": 276,
      "y": 4
    },
    {
      "id": "47f75abf-40bd-491c-ae6c-053d5bc618bd",
      "label": "Мыши",
      "x": 263,
      "y": 105
    },
    {
      "id": "a1f3d80a-22dc-48c4-b576-7ce335fd8162",
      "label": "Хомяки",
      "x": 395,
      "y": 112
    },
    {
      "id": "70d02ba9-926e-486b-a720-a06a0e15d008",
      "label": "Морские свинки",
      "x": 538,
      "y": 110
    },
    {
      "id": "38fef7db-c903-4829-8dbb-eff582327b91",
      "label": "Ящерицы",
      "x": 673,
      "y": 110
    },
    {
      "id": "ee4afaf0-71c2-4070-b564-40b55fcabc15",
      "label": "Корм",
      "x": -145,
      "y": -446
    },
    {
      "id": "c7a31f52-bd84-42c9-9c6d-374de5706a58",
      "label": "Размер",
      "x": -396,
      "y": -340
    },
    {
      "id": "9b286f25-42ec-4764-948d-9f60d5298be6",
      "label": "Вес",
      "x": -402,
      "y": -282
    },
    {
      "id": "339971a3-8d77-4936-8e31-906ff264eb54",
      "label": "Продолжительность жизни",
      "x": -269,
      "y": -398
    },
    {
      "id": "a65f3868-67cc-45b0-8106-e450556b36aa",
      "label": "Питание",
      "x": -102,
      "y": -349
    },
    {
      "id": "35a56798-82d1-464a-8f37-fd56a63c11e1",
      "label": "Проживание",
      "x": 131,
      "y": -319
    },
    {
      "id": "8ce018dd-9c0f-4d8a-827a-06b589cbc5ab",
      "label": "Туалет",
      "x": 48,
      "y": -364
    },
    {
      "id": "617a23ce-377e-45c9-9a83-11402d7c8e6f",
      "label": "Частота питания",
      "x": -48,
      "y": -444
    },
    {
      "id": "de936257-17f9-4b19-9554-7176f95b3df9",
      "label": "Масса корма",
      "x": 21,
      "y": -402
    },
    {
      "id": "d362e0a1-3c67-4f17-a103-ccbda1e00f3d",
      "label": "Требуется выгуливание на улице",
      "x": 379,
      "y": -269
    },
    {
      "id": "ec731a7f-e729-429a-a3aa-5fb61cff9a11",
      "label": "Место проживание",
      "x": 313,
      "y": -353
    },
    {
      "id": "8ad32b30-4e3c-4069-a210-8c2482d31fb9",
      "label": "Место туалета",
      "x": 188,
      "y": -408
    },
    {
      "id": "7a792c5c-ac17-49f2-ba10-be5abbc2c1b2",
      "label": "Лоток",
      "x": 317,
      "y": -474
    },
    {
      "id": "e2b565db-b2e5-4809-93e8-ae55971404fa",
      "label": "Улица",
      "x": 333,
      "y": -417
    },
    {
      "id": "66b05318-184e-4685-ae87-ac317ef41157",
      "label": "Сухой корм",
      "x": -165,
      "y": -527
    },
    {
      "id": "131f7733-ad11-426a-9d6a-c72cdb3ac301",
      "label": "2 раза в день",
      "x": -16,
      "y": -523
    },
    {
      "id": "1d58ad20-2ea2-4642-be9e-cb39ad83e31e",
      "label": "50 грамм",
      "x": 111,
      "y": -460
    },
    {
      "id": "19ac9ac0-9645-4586-b7cd-9d52aecf8bb2",
      "label": "Клетка",
      "x": 503,
      "y": -297
    },
    {
      "id": "0138d390-dd75-4c8a-bdb5-d32310332a20",
      "label": "Будка",
      "x": 505,
      "y": -410
    },
    {
      "id": "c295c708-56f8-4868-9636-2f801aaf5bd9",
      "label": "Квартира",
      "x": 538,
      "y": -347
    },
    {
      "id": "702ad892-8f18-4d8a-bd0c-55ad76414e1f",
      "label": "Овчарки",
      "x": -226,
      "y": 245
    },
    {
      "id": "64ba4255-9069-421a-95b6-20af1c35af15",
      "label": "Эгейский кот",
      "x": 14,
      "y": 238
    },
    {
      "id": "5e657c85-f116-486b-9f0d-a53930d64dd9",
      "label": "Вес",
      "x": -398,
      "y": -216
    },
    {
      "id": "d34eb789-d205-4c24-96b7-178f8395afe3",
      "label": "float",
      "x": -510,
      "y": -208
    },
    {
      "id": "a1d46f49-2984-4b27-a01f-3d5ba7732066",
      "label": "Проживание",
      "x": 125,
      "y": -250
    },
    {
      "id": "b2273ae8-38db-49da-8645-aace889c1ad6",
      "label": "__проживание__",
      "x": 315,
      "y": -219
    },
    {
      "id": "bc29530e-ad73-4214-bdbe-5e354ae3129f",
      "label": "Место проживания",
      "x": 528,
      "y": -205
    },
    {
      "id": "64c54969-c9c9-42c5-9a40-64419de702d7",
      "label": "__место проживания__",
      "x": 760,
      "y": -191
    },
    {
      "id": "5f928805-ca82-43bc-b63c-a189b774d37a",
      "label": "20kg",
      "x": -284,
      "y": 352
    },
    {
      "id": "2ddb962e-9519-4100-8bbf-324aa653b0b9",
      "label": "",
      "x": -141,
      "y": 353
    },
    {
      "id": "739136d1-7eda-4471-918f-950c5a9cf113",
      "label": "Будка",
      "x": 9,
      "y": 430
    },
    {
      "id": "279de825-895a-4681-8c2b-28474c51f40d",
      "label": "__Место проживания__",
      "x": 23,
      "y": 345
    }
  ],
  "edges": [
    {
      "id": "da4e171c-eef9-40b3-8955-4592fe21bd87",
      "to": "b0cc67ec-38b2-4a6f-8ead-3e352a7cbc31",
      "from": "3f5457b2-58bb-430e-b1ca-019366735187",
      "label": "subClassOf"
    },
    {
      "id": "dafb44e2-0dc2-46c6-9480-a5e2b2eebc79",
      "to": "b0cc67ec-38b2-4a6f-8ead-3e352a7cbc31",
      "from": "d45f2911-926c-4624-a99e-7b1c64868a24",
      "label": "subClassOf"
    },
    {
      "id": "24379295-75d6-429a-8ae2-cd188797c4c1",
      "to": "b0cc67ec-38b2-4a6f-8ead-3e352a7cbc31",
      "from": "27ea61d1-e462-419d-a6b2-9e14c01be5ee",
      "label": "subClassOf"
    },
    {
      "id": "703951e5-d8f8-4987-978f-f2177fbf0484",
      "to": "3f5457b2-58bb-430e-b1ca-019366735187",
      "from": "0985f0a0-d92f-47f0-be41-f6b9a049254a",
      "label": "subClassOf"
    },
    {
      "id": "467e491e-b32f-4596-85bc-5779990eb666",
      "to": "3f5457b2-58bb-430e-b1ca-019366735187",
      "from": "6768e48c-e2af-4340-9bce-3af4821d48d9",
      "label": "subClassOf"
    },
    {
      "id": "523c5e27-5021-4dbf-a032-b17589f6ea37",
      "to": "0985f0a0-d92f-47f0-be41-f6b9a049254a",
      "from": "dfe1fcf7-574b-4a0d-9b04-08181826b8cb",
      "label": "subClassOf"
    },
    {
      "id": "67bea5cf-fef5-42a7-964c-89f755d74776",
      "to": "fb924576-0820-44dd-bec3-714709174dfa",
      "from": "6caa1af2-a94b-4b45-b387-853aea0743e5",
      "label": "subClassOf"
    },
    {
      "id": "7dda9717-beb3-4577-b835-523bf6f626e1",
      "to": "fb924576-0820-44dd-bec3-714709174dfa",
      "from": "ac6697a7-596f-49d4-8a2c-c7eaad46a38f",
      "label": "subClassOf"
    },
    {
      "id": "9faddbfd-ef65-4eda-9e02-17c24c43bbbc",
      "to": "d45f2911-926c-4624-a99e-7b1c64868a24",
      "from": "fb924576-0820-44dd-bec3-714709174dfa",
      "label": "subClassOf"
    },
    {
      "id": "e3dbc3b6-5772-4b29-a7b6-d735e7595a56",
      "to": "d45f2911-926c-4624-a99e-7b1c64868a24",
      "from": "c02d83e4-0cf5-4d93-aa4d-26b44f452727",
      "label": "subClassOf"
    },
    {
      "id": "41bb5283-c427-4dab-8941-d7461c871e0d",
      "to": "6768e48c-e2af-4340-9bce-3af4821d48d9",
      "from": "8d0f8b18-427d-493c-b8b5-3fc4205d8a6e",
      "label": "subClassOf"
    },
    {
      "id": "8629e753-730e-4b85-9826-9520763f7092",
      "to": "c02d83e4-0cf5-4d93-aa4d-26b44f452727",
      "from": "39918c16-f40d-4120-8412-854c416af247",
      "label": "subClassOf"
    },
    {
      "id": "1cba04a6-0f57-4501-b0f4-8fb19f86d438",
      "to": "d45f2911-926c-4624-a99e-7b1c64868a24",
      "from": "286bbaef-6ab8-41e7-9af1-955cf35dc0f9",
      "label": "subClassOf"
    },
    {
      "id": "1d658aad-b09e-447b-8ffc-2169cfa07718",
      "to": "286bbaef-6ab8-41e7-9af1-955cf35dc0f9",
      "from": "31266274-abff-4cdf-a3f5-25f6d2d7d5e5",
      "label": "subClassOf"
    },
    {
      "id": "43bdc415-4fc4-4afb-9203-b488a2b5e441",
      "to": "286bbaef-6ab8-41e7-9af1-955cf35dc0f9",
      "from": "03df4f6e-a77c-4c5c-a22f-bd049827b34d",
      "label": "subClassOf"
    },
    {
      "id": "35c7461b-7338-4272-a33b-cc884bce910b",
      "to": "d45f2911-926c-4624-a99e-7b1c64868a24",
      "from": "dc4a2f4d-53d2-4517-bd3e-4010f02dba85",
      "label": "subClassOf"
    },
    {
      "id": "9cb3421a-e3eb-4ad8-bed5-8223636e7a84",
      "to": "dc4a2f4d-53d2-4517-bd3e-4010f02dba85",
      "from": "70d02ba9-926e-486b-a720-a06a0e15d008",
      "label": "subClassOf"
    },
    {
      "id": "1837e6c5-f592-42b9-9bf0-10c4999b901a",
      "to": "dc4a2f4d-53d2-4517-bd3e-4010f02dba85",
      "from": "a1f3d80a-22dc-48c4-b576-7ce335fd8162",
      "label": "subClassOf"
    },
    {
      "id": "e53aab83-af60-4260-af32-425e7ad4e28e",
      "to": "dc4a2f4d-53d2-4517-bd3e-4010f02dba85",
      "from": "47f75abf-40bd-491c-ae6c-053d5bc618bd",
      "label": "subClassOf"
    },
    {
      "id": "764680ec-bfbf-4b04-9139-a4d54d593bc5",
      "to": "27ea61d1-e462-419d-a6b2-9e14c01be5ee",
      "from": "38fef7db-c903-4829-8dbb-eff582327b91",
      "label": "subClassOf"
    },
    {
      "id": "f977c0d0-fbd1-409a-9e17-f995cb423448",
      "to": "f261d607-b3d4-43d9-8509-804013b1cb1b",
      "from": "936ce958-568b-4c4a-91bc-bf8076cb0352",
      "label": "subClassOf"
    },
    {
      "id": "c25ce25d-8625-417e-a28f-24d8092fe819",
      "to": "f261d607-b3d4-43d9-8509-804013b1cb1b",
      "from": "084a33f2-8d94-4ddd-b14e-b354155a7704",
      "label": "subClassOf"
    },
    {
      "id": "cd6b4c2a-695f-48c6-93e2-94797bfeb959",
      "to": "ee4afaf0-71c2-4070-b564-40b55fcabc15",
      "from": "a65f3868-67cc-45b0-8106-e450556b36aa",
      "label": "has"
    },
    {
      "id": "c6b4064a-e78e-4407-a988-60a114092fe8",
      "to": "617a23ce-377e-45c9-9a83-11402d7c8e6f",
      "from": "a65f3868-67cc-45b0-8106-e450556b36aa",
      "label": "has"
    },
    {
      "id": "9eee19d4-d180-400a-80f2-e6857841c3df",
      "to": "de936257-17f9-4b19-9554-7176f95b3df9",
      "from": "a65f3868-67cc-45b0-8106-e450556b36aa",
      "label": "has"
    },
    {
      "id": "a9ffaa32-a0ac-4cb9-9223-f008bdd5ef12",
      "to": "ec731a7f-e729-429a-a3aa-5fb61cff9a11",
      "from": "35a56798-82d1-464a-8f37-fd56a63c11e1",
      "label": "has"
    },
    {
      "id": "5d719120-2b60-456d-9ae6-eba4c61b9a88",
      "to": "d362e0a1-3c67-4f17-a103-ccbda1e00f3d",
      "from": "35a56798-82d1-464a-8f37-fd56a63c11e1",
      "label": "has"
    },
    {
      "id": "63a9e410-ea97-4dfe-9733-8e0a30004d03",
      "to": "8ad32b30-4e3c-4069-a210-8c2482d31fb9",
      "from": "8ce018dd-9c0f-4d8a-827a-06b589cbc5ab",
      "label": "has"
    },
    {
      "id": "c1f5938d-2995-4e9a-b5c9-dd42ceae5171",
      "to": "8ad32b30-4e3c-4069-a210-8c2482d31fb9",
      "from": "7a792c5c-ac17-49f2-ba10-be5abbc2c1b2",
      "label": "type"
    },
    {
      "id": "83203f94-24e5-46ac-a00a-effcaa2c8202",
      "to": "8ad32b30-4e3c-4069-a210-8c2482d31fb9",
      "from": "e2b565db-b2e5-4809-93e8-ae55971404fa",
      "label": "type"
    },
    {
      "id": "8494e2c5-f14e-44d8-b63d-916bd3c25f5c",
      "to": "ee4afaf0-71c2-4070-b564-40b55fcabc15",
      "from": "66b05318-184e-4685-ae87-ac317ef41157",
      "label": "type"
    },
    {
      "id": "61735674-c1d8-4308-a509-cf6722aac102",
      "to": "c7a31f52-bd84-42c9-9c6d-374de5706a58",
      "from": "b0cc67ec-38b2-4a6f-8ead-3e352a7cbc31",
      "label": "has"
    },
    {
      "id": "aa4f7aa9-3a6b-44cb-8544-8380dbf6631e",
      "to": "9b286f25-42ec-4764-948d-9f60d5298be6",
      "from": "b0cc67ec-38b2-4a6f-8ead-3e352a7cbc31",
      "label": "has"
    },
    {
      "id": "d6dc5fca-82a5-424d-91d6-31957bc6b3e2",
      "to": "339971a3-8d77-4936-8e31-906ff264eb54",
      "from": "b0cc67ec-38b2-4a6f-8ead-3e352a7cbc31",
      "label": "has"
    },
    {
      "id": "e8714c20-704a-4e40-95fc-e28a4a89b725",
      "to": "a65f3868-67cc-45b0-8106-e450556b36aa",
      "from": "b0cc67ec-38b2-4a6f-8ead-3e352a7cbc31",
      "label": "has"
    },
    {
      "id": "f9f2b549-74e0-43f6-be64-794812228ee7",
      "to": "617a23ce-377e-45c9-9a83-11402d7c8e6f",
      "from": "131f7733-ad11-426a-9d6a-c72cdb3ac301",
      "label": "type"
    },
    {
      "id": "04942930-8ac5-4ff1-8fbe-f5e1424d6324",
      "to": "de936257-17f9-4b19-9554-7176f95b3df9",
      "from": "1d58ad20-2ea2-4642-be9e-cb39ad83e31e",
      "label": "type"
    },
    {
      "id": "f323e8cb-ea1d-4114-b308-fa13c6ccafb6",
      "to": "35a56798-82d1-464a-8f37-fd56a63c11e1",
      "from": "b0cc67ec-38b2-4a6f-8ead-3e352a7cbc31",
      "label": "has"
    },
    {
      "id": "d9a07896-f458-4255-a5c7-0ee7db260d0b",
      "to": "8ce018dd-9c0f-4d8a-827a-06b589cbc5ab",
      "from": "b0cc67ec-38b2-4a6f-8ead-3e352a7cbc31",
      "label": "has"
    },
    {
      "id": "4039339c-158c-4116-ab33-c88b4f118e28",
      "to": "ec731a7f-e729-429a-a3aa-5fb61cff9a11",
      "from": "19ac9ac0-9645-4586-b7cd-9d52aecf8bb2",
      "label": "type"
    },
    {
      "id": "d2cdc98d-882a-4f87-9bed-7d0c73f2b8db",
      "to": "ec731a7f-e729-429a-a3aa-5fb61cff9a11",
      "from": "0138d390-dd75-4c8a-bdb5-d32310332a20",
      "label": "type"
    },
    {
      "id": "f882fb9c-1988-4cf3-bad3-9aed0afae137",
      "to": "ec731a7f-e729-429a-a3aa-5fb61cff9a11",
      "from": "c295c708-56f8-4868-9636-2f801aaf5bd9",
      "label": "type"
    },
    {
      "id": "e3e2b529-77d8-4803-bd44-e20b4f020fdf",
      "to": "284f3cd2-a0ab-42be-8778-37ffebce2a5f",
      "from": "6caa1af2-a94b-4b45-b387-853aea0743e5",
      "label": "has"
    },
    {
      "id": "050bdaa7-7492-4b84-a9fa-a7f26b0b45c2",
      "to": "940ac55b-fe57-485c-a577-6a707e6af4c3",
      "from": "39918c16-f40d-4120-8412-854c416af247",
      "label": "has"
    },
    {
      "id": "39094f96-b84a-4d8d-98d0-c5e1e2ea1f6c",
      "to": "f261d607-b3d4-43d9-8509-804013b1cb1b",
      "from": "284f3cd2-a0ab-42be-8778-37ffebce2a5f",
      "label": "subClassOf"
    },
    {
      "id": "fa67025b-4454-4512-8f1c-82bbd65e45d3",
      "to": "6caa1af2-a94b-4b45-b387-853aea0743e5",
      "from": "702ad892-8f18-4d8a-bd0c-55ad76414e1f",
      "label": "subClassOf"
    },
    {
      "id": "767eacb0-41c9-4990-a4eb-e914a2a87d40",
      "to": "39918c16-f40d-4120-8412-854c416af247",
      "from": "64ba4255-9069-421a-95b6-20af1c35af15",
      "label": "subClassOf"
    },
    {
      "id": "c7264c83-2c62-4399-b747-a80a686037a9",
      "to": "b0cc67ec-38b2-4a6f-8ead-3e352a7cbc31",
      "from": "5e657c85-f116-486b-9f0d-a53930d64dd9",
      "label": "domain"
    },
    {
      "id": "ea0412c4-0bca-472a-994f-4e2716c5ffb8",
      "to": "d34eb789-d205-4c24-96b7-178f8395afe3",
      "from": "5e657c85-f116-486b-9f0d-a53930d64dd9",
      "label": "range"
    },
    {
      "id": "fa9d3f7d-cb7b-4917-b541-a55c2cb929fe",
      "to": "b0cc67ec-38b2-4a6f-8ead-3e352a7cbc31",
      "from": "a1d46f49-2984-4b27-a01f-3d5ba7732066",
      "label": "domain"
    },
    {
      "id": "ff1db95e-6802-4905-a0c6-472b55c55a72",
      "to": "b2273ae8-38db-49da-8645-aace889c1ad6",
      "from": "a1d46f49-2984-4b27-a01f-3d5ba7732066",
      "label": "range"
    },
    {
      "id": "22717ddd-4e26-413b-ad1e-79621657f81c",
      "to": "b2273ae8-38db-49da-8645-aace889c1ad6",
      "from": "bc29530e-ad73-4214-bdbe-5e354ae3129f",
      "label": "domain"
    },
    {
      "id": "53852edd-cdfa-4b62-9be5-cbaef30844e7",
      "to": "64c54969-c9c9-42c5-9a40-64419de702d7",
      "from": "bc29530e-ad73-4214-bdbe-5e354ae3129f",
      "label": "range"
    },
    {
      "id": "da35c376-7de1-41fe-a4b3-0b7e392b426d",
      "to": "5f928805-ca82-43bc-b63c-a189b774d37a",
      "from": "702ad892-8f18-4d8a-bd0c-55ad76414e1f",
      "label": "Вес"
    },
    {
      "id": "fc039084-4180-47ff-9434-1281e1b107bf",
      "to": "2ddb962e-9519-4100-8bbf-324aa653b0b9",
      "from": "702ad892-8f18-4d8a-bd0c-55ad76414e1f",
      "label": "Проживание"
    },
    {
      "id": "904e4f2f-4372-4d55-938e-4c4a445ff8ec",
      "to": "739136d1-7eda-4471-918f-950c5a9cf113",
      "from": "2ddb962e-9519-4100-8bbf-324aa653b0b9",
      "label": "Место проживания"
    },
    {
      "id": "984d2059-72c9-4a97-b0f0-4a7d7640b2e0",
      "to": "279de825-895a-4681-8c2b-28474c51f40d",
      "from": "739136d1-7eda-4471-918f-950c5a9cf113",
      "label": "type"
    }
  ]
}
